info face=fnt_carbon size=100 bold=0 italic=0 charset= unicode= stretchH=100 smooth=1 aa=1 padding=2,2,2,2 spacing=0,0 outline=0
common lineHeight=120 base=74 scaleW=512 scaleH=512 pages=1 packed=0
page id=0 file="fnt_carbon.png"
chars count=43
char id=65 x=2 y=2 width=44 height=74 xoffset=3 yoffset=0 xadvance=51 page=0 chnl=15
char id=66 x=2 y=78 width=44 height=76 xoffset=3 yoffset=0 xadvance=50 page=0 chnl=15
char id=67 x=2 y=156 width=43 height=76 xoffset=3 yoffset=0 xadvance=48 page=0 chnl=15
char id=68 x=2 y=234 width=44 height=72 xoffset=4 yoffset=2 xadvance=51 page=0 chnl=15
char id=69 x=47 y=156 width=38 height=72 xoffset=4 yoffset=2 xadvance=44 page=0 chnl=15
char id=70 x=48 y=2 width=37 height=72 xoffset=4 yoffset=2 xadvance=42 page=0 chnl=15
char id=71 x=48 y=76 width=44 height=76 xoffset=3 yoffset=0 xadvance=50 page=0 chnl=15
char id=72 x=87 y=2 width=44 height=72 xoffset=4 yoffset=2 xadvance=51 page=0 chnl=15
char id=73 x=2 y=308 width=17 height=72 xoffset=4 yoffset=2 xadvance=25 page=0 chnl=15
char id=74 x=2 y=382 width=43 height=74 xoffset=2 yoffset=2 xadvance=49 page=0 chnl=15
char id=75 x=21 y=308 width=48 height=72 xoffset=3 yoffset=2 xadvance=50 page=0 chnl=15
char id=76 x=48 y=230 width=38 height=72 xoffset=4 yoffset=2 xadvance=42 page=0 chnl=15
char id=77 x=87 y=154 width=71 height=74 xoffset=3 yoffset=0 xadvance=78 page=0 chnl=15
char id=78 x=94 y=76 width=44 height=74 xoffset=3 yoffset=0 xadvance=51 page=0 chnl=15
char id=79 x=47 y=382 width=44 height=76 xoffset=3 yoffset=0 xadvance=50 page=0 chnl=15
char id=80 x=71 y=304 width=44 height=74 xoffset=3 yoffset=0 xadvance=48 page=0 chnl=15
char id=81 x=93 y=380 width=44 height=82 xoffset=3 yoffset=0 xadvance=50 page=0 chnl=15
char id=82 x=117 y=230 width=44 height=74 xoffset=3 yoffset=0 xadvance=50 page=0 chnl=15
char id=83 x=140 y=2 width=43 height=76 xoffset=3 yoffset=0 xadvance=48 page=0 chnl=15
char id=84 x=140 y=80 width=45 height=72 xoffset=1 yoffset=2 xadvance=45 page=0 chnl=15
char id=85 x=160 y=154 width=43 height=74 xoffset=3 yoffset=2 xadvance=50 page=0 chnl=15
char id=86 x=117 y=306 width=50 height=72 xoffset=1 yoffset=2 xadvance=50 page=0 chnl=15
char id=87 x=163 y=230 width=69 height=74 xoffset=3 yoffset=2 xadvance=76 page=0 chnl=15
char id=88 x=185 y=2 width=44 height=72 xoffset=3 yoffset=2 xadvance=49 page=0 chnl=15
char id=89 x=187 y=76 width=50 height=72 xoffset=0 yoffset=2 xadvance=50 page=0 chnl=15
char id=90 x=231 y=2 width=39 height=72 xoffset=3 yoffset=2 xadvance=43 page=0 chnl=15
char id=49 x=88 y=230 width=27 height=72 xoffset=1 yoffset=2 xadvance=31 page=0 chnl=15
char id=50 x=205 y=150 width=44 height=74 xoffset=3 yoffset=0 xadvance=51 page=0 chnl=15
char id=51 x=139 y=380 width=44 height=76 xoffset=3 yoffset=0 xadvance=49 page=0 chnl=15
char id=52 x=239 y=76 width=45 height=72 xoffset=2 yoffset=2 xadvance=51 page=0 chnl=15
char id=53 x=185 y=306 width=43 height=74 xoffset=3 yoffset=2 xadvance=50 page=0 chnl=15
char id=54 x=185 y=382 width=44 height=76 xoffset=3 yoffset=0 xadvance=49 page=0 chnl=15
char id=55 x=272 y=2 width=44 height=72 xoffset=2 yoffset=2 xadvance=47 page=0 chnl=15
char id=56 x=231 y=306 width=44 height=76 xoffset=3 yoffset=0 xadvance=49 page=0 chnl=15
char id=57 x=234 y=226 width=44 height=76 xoffset=3 yoffset=0 xadvance=50 page=0 chnl=15
char id=48 x=231 y=384 width=44 height=76 xoffset=3 yoffset=0 xadvance=50 page=0 chnl=15
char id=62 x=2 y=460 width=50 height=49 xoffset=3 yoffset=13 xadvance=56 page=0 chnl=15
char id=60 x=139 y=460 width=50 height=49 xoffset=3 yoffset=13 xadvance=56 page=0 chnl=15
char id=61 x=54 y=464 width=50 height=28 xoffset=3 yoffset=21 xadvance=55 page=0 chnl=15
char id=46 x=54 y=494 width=16 height=12 xoffset=3 yoffset=62 xadvance=22 page=0 chnl=15
char id=44 x=106 y=464 width=17 height=21 xoffset=3 yoffset=62 xadvance=23 page=0 chnl=15
char id=59 x=251 y=150 width=18 height=54 xoffset=3 yoffset=29 xadvance=25 page=0 chnl=15
char id=63 x=271 y=150 width=39 height=74 xoffset=3 yoffset=0 xadvance=44 page=0 chnl=15
char id=32 x=0 y=0 width=0 height=0 xoffset=3 yoffset=0 xadvance=23 page=0 chnl=15
kernings count=220
kerning first=44 second=48 amount=-1
kerning first=44 second=49 amount=-6
kerning first=44 second=51 amount=-1
kerning first=44 second=52 amount=-9
kerning first=44 second=53 amount=-1
kerning first=44 second=54 amount=-1
kerning first=44 second=55 amount=-4
kerning first=44 second=56 amount=-1
kerning first=44 second=57 amount=-1
kerning first=44 second=66 amount=-1
kerning first=44 second=67 amount=-1
kerning first=44 second=71 amount=-1
kerning first=44 second=74 amount=-1
kerning first=44 second=79 amount=-1
kerning first=44 second=81 amount=-1
kerning first=44 second=83 amount=-1
kerning first=44 second=84 amount=-8
kerning first=44 second=85 amount=-1
kerning first=44 second=86 amount=-7
kerning first=44 second=87 amount=-1
kerning first=44 second=89 amount=-10
kerning first=46 second=48 amount=-1
kerning first=46 second=49 amount=-6
kerning first=46 second=51 amount=-1
kerning first=46 second=52 amount=-9
kerning first=46 second=53 amount=-1
kerning first=46 second=54 amount=-1
kerning first=46 second=55 amount=-4
kerning first=46 second=56 amount=-1
kerning first=46 second=57 amount=-1
kerning first=46 second=66 amount=-1
kerning first=46 second=67 amount=-1
kerning first=46 second=71 amount=-1
kerning first=46 second=74 amount=-1
kerning first=46 second=79 amount=-1
kerning first=46 second=81 amount=-1
kerning first=46 second=83 amount=-1
kerning first=46 second=84 amount=-8
kerning first=46 second=85 amount=-1
kerning first=46 second=86 amount=-7
kerning first=46 second=87 amount=-1
kerning first=46 second=89 amount=-10
kerning first=48 second=44 amount=-1
kerning first=48 second=46 amount=-1
kerning first=48 second=84 amount=-1
kerning first=48 second=86 amount=-2
kerning first=48 second=89 amount=-3
kerning first=50 second=84 amount=-1
kerning first=50 second=86 amount=-2
kerning first=50 second=89 amount=-3
kerning first=51 second=44 amount=-1
kerning first=51 second=46 amount=-1
kerning first=51 second=84 amount=-1
kerning first=51 second=86 amount=-2
kerning first=51 second=89 amount=-3
kerning first=53 second=44 amount=-1
kerning first=54 second=44 amount=-1
kerning first=54 second=46 amount=-1
kerning first=54 second=84 amount=-1
kerning first=54 second=86 amount=-2
kerning first=54 second=89 amount=-3
kerning first=55 second=44 amount=-9
kerning first=55 second=46 amount=-9
kerning first=55 second=52 amount=-10
kerning first=56 second=44 amount=-1
kerning first=56 second=46 amount=-1
kerning first=56 second=84 amount=-1
kerning first=56 second=86 amount=-2
kerning first=56 second=89 amount=-3
kerning first=57 second=44 amount=-1
kerning first=57 second=46 amount=-1
kerning first=57 second=84 amount=-1
kerning first=57 second=86 amount=-2
kerning first=57 second=89 amount=-3
kerning first=65 second=84 amount=-1
kerning first=65 second=86 amount=-2
kerning first=65 second=89 amount=-3
kerning first=66 second=44 amount=-1
kerning first=66 second=46 amount=-1
kerning first=66 second=84 amount=-1
kerning first=66 second=86 amount=-2
kerning first=66 second=89 amount=-3
kerning first=67 second=44 amount=-1
kerning first=67 second=46 amount=-1
kerning first=67 second=84 amount=-1
kerning first=67 second=86 amount=-2
kerning first=67 second=89 amount=-3
kerning first=68 second=44 amount=-1
kerning first=68 second=46 amount=-1
kerning first=68 second=84 amount=-1
kerning first=68 second=86 amount=-2
kerning first=68 second=89 amount=-3
kerning first=70 second=44 amount=-13
kerning first=70 second=46 amount=-13
kerning first=70 second=74 amount=-10
kerning first=74 second=44 amount=-1
kerning first=74 second=46 amount=-1
kerning first=75 second=48 amount=-2
kerning first=75 second=51 amount=-2
kerning first=75 second=54 amount=-2
kerning first=75 second=56 amount=-2
kerning first=75 second=57 amount=-2
kerning first=75 second=66 amount=-2
kerning first=75 second=67 amount=-2
kerning first=75 second=71 amount=-2
kerning first=75 second=79 amount=-2
kerning first=75 second=81 amount=-2
kerning first=75 second=83 amount=-2
kerning first=76 second=48 amount=-1
kerning first=76 second=51 amount=-1
kerning first=76 second=53 amount=-1
kerning first=76 second=54 amount=-1
kerning first=76 second=56 amount=-1
kerning first=76 second=57 amount=-1
kerning first=76 second=66 amount=-1
kerning first=76 second=67 amount=-1
kerning first=76 second=71 amount=-1
kerning first=76 second=74 amount=-1
kerning first=76 second=79 amount=-1
kerning first=76 second=81 amount=-1
kerning first=76 second=83 amount=-1
kerning first=76 second=84 amount=-8
kerning first=76 second=85 amount=-1
kerning first=76 second=86 amount=-6
kerning first=76 second=87 amount=-1
kerning first=76 second=89 amount=-9
kerning first=77 second=84 amount=-1
kerning first=77 second=86 amount=-2
kerning first=77 second=89 amount=-3
kerning first=78 second=84 amount=-1
kerning first=78 second=86 amount=-2
kerning first=78 second=89 amount=-3
kerning first=79 second=44 amount=-1
kerning first=79 second=46 amount=-1
kerning first=79 second=84 amount=-1
kerning first=79 second=86 amount=-2
kerning first=79 second=89 amount=-3
kerning first=80 second=44 amount=-12
kerning first=80 second=46 amount=-12
kerning first=80 second=74 amount=-6
kerning first=80 second=86 amount=-2
kerning first=80 second=89 amount=-2
kerning first=81 second=44 amount=-1
kerning first=81 second=46 amount=-1
kerning first=81 second=84 amount=-1
kerning first=81 second=86 amount=-2
kerning first=81 second=89 amount=-3
kerning first=82 second=84 amount=-1
kerning first=82 second=86 amount=-2
kerning first=82 second=89 amount=-3
kerning first=83 second=44 amount=-1
kerning first=83 second=46 amount=-1
kerning first=83 second=84 amount=-1
kerning first=83 second=86 amount=-2
kerning first=83 second=89 amount=-3
kerning first=84 second=44 amount=-8
kerning first=84 second=46 amount=-8
kerning first=84 second=48 amount=-1
kerning first=84 second=50 amount=-1
kerning first=84 second=51 amount=-1
kerning first=84 second=54 amount=-1
kerning first=84 second=56 amount=-1
kerning first=84 second=57 amount=-1
kerning first=84 second=65 amount=-1
kerning first=84 second=66 amount=-1
kerning first=84 second=67 amount=-1
kerning first=84 second=71 amount=-1
kerning first=84 second=74 amount=-8
kerning first=84 second=77 amount=-1
kerning first=84 second=78 amount=-1
kerning first=84 second=79 amount=-1
kerning first=84 second=80 amount=-1
kerning first=84 second=81 amount=-1
kerning first=84 second=82 amount=-1
kerning first=84 second=83 amount=-1
kerning first=84 second=84 amount=2
kerning first=85 second=44 amount=-1
kerning first=85 second=46 amount=-1
kerning first=86 second=44 amount=-7
kerning first=86 second=46 amount=-7
kerning first=86 second=48 amount=-2
kerning first=86 second=50 amount=-2
kerning first=86 second=51 amount=-2
kerning first=86 second=54 amount=-2
kerning first=86 second=56 amount=-2
kerning first=86 second=57 amount=-2
kerning first=86 second=65 amount=-2
kerning first=86 second=66 amount=-2
kerning first=86 second=67 amount=-2
kerning first=86 second=71 amount=-2
kerning first=86 second=74 amount=-5
kerning first=86 second=77 amount=-2
kerning first=86 second=78 amount=-2
kerning first=86 second=79 amount=-2
kerning first=86 second=80 amount=-2
kerning first=86 second=81 amount=-2
kerning first=86 second=82 amount=-2
kerning first=86 second=83 amount=-2
kerning first=87 second=44 amount=-1
kerning first=87 second=46 amount=-1
kerning first=89 second=44 amount=-10
kerning first=89 second=46 amount=-10
kerning first=89 second=48 amount=-3
kerning first=89 second=50 amount=-3
kerning first=89 second=51 amount=-3
kerning first=89 second=54 amount=-3
kerning first=89 second=56 amount=-3
kerning first=89 second=57 amount=-3
kerning first=89 second=65 amount=-3
kerning first=89 second=66 amount=-3
kerning first=89 second=67 amount=-3
kerning first=89 second=71 amount=-3
kerning first=89 second=74 amount=-10
kerning first=89 second=77 amount=-3
kerning first=89 second=78 amount=-3
kerning first=89 second=79 amount=-3
kerning first=89 second=80 amount=-3
kerning first=89 second=81 amount=-3
kerning first=89 second=82 amount=-3
kerning first=89 second=83 amount=-3