info face="Arial" size=32 bold=0 italic=0 charset="" unicode=1 stretchH=100 smooth=1 aa=1 padding=0,0,0,0 spacing=1,1 outline=0
common lineHeight=32 base=26 scaleW=256 scaleH=256 pages=1 packed=0 alphaChnl=1 redChnl=0 greenChnl=0 blueChnl=0
page id=0 file="fnt_move.png"
chars count=11
char id=48   x=39    y=0     width=37    height=47    xoffset=0     yoffset=0     xadvance=37    page=0  chnl=15
char id=49   x=66    y=48    width=28    height=47    xoffset=0     yoffset=0     xadvance=28    page=0  chnl=15
char id=50   x=0     y=0     width=38    height=47    xoffset=0     yoffset=0     xadvance=38    page=0  chnl=15
char id=51   x=77    y=0     width=36    height=47    xoffset=0     yoffset=0     xadvance=36    page=0  chnl=15
char id=52   x=114   y=0     width=35    height=47    xoffset=0     yoffset=0     xadvance=35    page=0  chnl=15
char id=53   x=0     y=48    width=32    height=47    xoffset=0     yoffset=0     xadvance=32    page=0  chnl=15
char id=54   x=185   y=0     width=33    height=47    xoffset=0     yoffset=0     xadvance=33    page=0  chnl=15
char id=55   x=33    y=48    width=32    height=47    xoffset=0     yoffset=0     xadvance=32    page=0  chnl=15
char id=56   x=150   y=0     width=34    height=47    xoffset=0     yoffset=0     xadvance=34    page=0  chnl=15
char id=57   x=219   y=0     width=33    height=47    xoffset=0     yoffset=0     xadvance=33    page=0  chnl=15
char id=58   x=95    y=48    width=20    height=47    xoffset=0     yoffset=0     xadvance=20    page=0  chnl=15
